Intermediate example • cograph
…
    Skip to contents

      Intermediate example

      Source: vignettes/cograph_demo.Rmd
      cograph_demo.Rmd

We create a directed, row-normalized transition matrix with
self-regulation style state labels typical of TNA (Transition Network
Analysis).

set.seed(42)

states <- c("Explore", "Plan", "Monitor", "Evaluate", "Adapt",
            "Reflect", "Regulate", "Execute", "Collaborate", "Review")

## Generate random directed weights
mat <- matrix(runif(100, 0, 0.5), nrow = 10, dimnames = list(states, states))
diag(mat) <- 0

## Add structure: make some transitions stronger
mat["Explore", "Plan"]       <- 0.6
mat["Plan", "Execute"]       <- 0.7
mat["Execute", "Monitor"]    <- 0.5
mat["Monitor", "Evaluate"]   <- 0.6
mat["Evaluate", "Adapt"]     <- 0.55
mat["Adapt", "Regulate"]     <- 0.45
mat["Regulate", "Reflect"]   <- 0.5
mat["Reflect", "Collaborate"] <- 0.4
mat["Collaborate", "Review"]  <- 0.5
mat["Review", "Explore"]      <- 0.35

## Row-normalize
mat <- mat / rowSums(mat)

round(mat, 2)
#>             Explore Plan Monitor Evaluate Adapt Reflect Regulate Execute
#> Explore        0.00 0.22    0.16     0.13  0.07    0.06     0.12    0.01
#> Plan           0.18 0.00    0.03     0.16  0.08    0.07     0.19    0.27
#> Monitor        0.07 0.21    0.00     0.27  0.01    0.09     0.17    0.05
#>             Collaborate Review
#> Explore            0.11   0.12
#> Plan               0.03   0.00
#> Monitor            0.08   0.05
#>  [ reached 'max' / getOption("max.print") -- omitted 7 rows ]
…
